<svg width="17" height="17" viewBox="0 0 17 17" fill="none" xmlns="http://www.w3.org/2000/svg">
<path d="M8.82271 11.9225L4.70227 14.0866L5.48937 9.5029L2.15137 6.25704L6.75782 5.59013L8.81803 1.41992L10.8783 5.59013L15.4847 6.25704L12.1467 9.5029L12.9338 14.0866L8.82271 11.9225Z" stroke="white" stroke-opacity="0.6" stroke-width="1.5" stroke-linecap="round" stroke-linejoin="round"/>
</svg>
