<svg width="25" height="24" viewBox="0 0 25 24" fill="none" xmlns="http://www.w3.org/2000/svg">
<path d="M1.33301 3.75C1.33301 3.02065 1.62274 2.32118 2.13846 1.80546C2.65419 1.28973 3.35366 1 4.08301 1H17.833C18.5624 1 19.2618 1.28973 19.7776 1.80546C20.2933 2.32118 20.583 3.02065 20.583 3.75V10.075C19.519 9.5308 18.3406 9.24799 17.1455 9.25C15.5271 9.25 14.027 9.75875 12.7964 10.625H10.2705C10.0882 10.625 9.9133 10.6974 9.78437 10.8264C9.65544 10.9553 9.58301 11.1302 9.58301 11.3125C9.58301 11.4948 9.65544 11.6697 9.78437 11.7986C9.9133 11.9276 10.0882 12 10.2705 12H11.3114C10.1916 13.3535 9.58022 15.0558 9.58301 16.8125C9.58301 18.05 9.88001 19.2188 10.408 20.25H4.08301C3.35366 20.25 2.65419 19.9603 2.13846 19.4445C1.62274 18.9288 1.33301 18.2293 1.33301 17.5V3.75ZM6.48926 7.875C6.76276 7.875 7.02506 7.76635 7.21846 7.57295C7.41186 7.37956 7.52051 7.11725 7.52051 6.84375C7.52051 6.57025 7.41186 6.30794 7.21846 6.11455C7.02506 5.92115 6.76276 5.8125 6.48926 5.8125C6.21575 5.8125 5.95345 5.92115 5.76005 6.11455C5.56666 6.30794 5.45801 6.57025 5.45801 6.84375C5.45801 7.11725 5.56666 7.37956 5.76005 7.57295C5.95345 7.76635 6.21575 7.875 6.48926 7.875ZM5.45801 10.9688C5.45801 11.2423 5.56666 11.5046 5.76005 11.698C5.95345 11.8913 6.21575 12 6.48926 12C6.76276 12 7.02506 11.8913 7.21846 11.698C7.41186 11.5046 7.52051 11.2423 7.52051 10.9688C7.52051 10.6952 7.41186 10.4329 7.21846 10.2395C7.02506 10.0462 6.76276 9.9375 6.48926 9.9375C6.21575 9.9375 5.95345 10.0462 5.76005 10.2395C5.56666 10.4329 5.45801 10.6952 5.45801 10.9688ZM6.48926 16.125C6.76276 16.125 7.02506 16.0163 7.21846 15.823C7.41186 15.6296 7.52051 15.3673 7.52051 15.0938C7.52051 14.8202 7.41186 14.5579 7.21846 14.3645C7.02506 14.1712 6.76276 14.0625 6.48926 14.0625C6.21575 14.0625 5.95345 14.1712 5.76005 14.3645C5.56666 14.5579 5.45801 14.8202 5.45801 15.0938C5.45801 15.3673 5.56666 15.6296 5.76005 15.823C5.95345 16.0163 6.21575 16.125 6.48926 16.125ZM15.7705 6.5H10.2705C10.0882 6.5 9.9133 6.57243 9.78437 6.70136C9.65544 6.8303 9.58301 7.00516 9.58301 7.1875C9.58301 7.36984 9.65544 7.5447 9.78437 7.67364C9.9133 7.80257 10.0882 7.875 10.2705 7.875H15.7705C15.9528 7.875 16.1277 7.80257 16.2566 7.67364C16.3856 7.5447 16.458 7.36984 16.458 7.1875C16.458 7.00516 16.3856 6.8303 16.2566 6.70136C16.1277 6.57243 15.9528 6.5 15.7705 6.5ZM17.1455 23C18.7865 23 20.3603 22.3481 21.5207 21.1877C22.6811 20.0273 23.333 18.4535 23.333 16.8125C23.333 15.1715 22.6811 13.5977 21.5207 12.4373C20.3603 11.2769 18.7865 10.625 17.1455 10.625C15.5045 10.625 13.9307 11.2769 12.7703 12.4373C11.6099 13.5977 10.958 15.1715 10.958 16.8125C10.958 18.4535 11.6099 20.0273 12.7703 21.1877C13.9307 22.3481 15.5045 23 17.1455 23ZM16.458 14.0625C16.458 13.8802 16.5304 13.7053 16.6594 13.5764C16.7883 13.4474 16.9632 13.375 17.1455 13.375C17.3278 13.375 17.5027 13.4474 17.6316 13.5764C17.7606 13.7053 17.833 13.8802 17.833 14.0625V16.125H19.208C19.3903 16.125 19.5652 16.1974 19.6941 16.3264C19.8231 16.4553 19.8955 16.6302 19.8955 16.8125C19.8955 16.9948 19.8231 17.1697 19.6941 17.2986C19.5652 17.4276 19.3903 17.5 19.208 17.5H17.1455C16.9632 17.5 16.7883 17.4276 16.6594 17.2986C16.5304 17.1697 16.458 16.9948 16.458 16.8125V14.0625Z" fill="#9F9BAB"/>
<path fill-rule="evenodd" clip-rule="evenodd" d="M2.13846 1.80546C1.62274 2.32118 1.33301 3.02065 1.33301 3.75V17.5C1.33301 18.2293 1.62274 18.9288 2.13846 19.4445C2.65419 19.9603 3.35366 20.25 4.08301 20.25H10.408C9.88001 19.2188 9.58301 18.05 9.58301 16.8125C9.58024 15.0696 10.1821 13.3802 11.2851 12.0319L11.333 12C11.6156 11.5761 12.497 10.793 13.3681 10.2597C14.4799 9.61752 15.77 9.25 17.1455 9.25C18.3406 9.24799 19.519 9.5308 20.583 10.075V3.75C20.583 3.02065 20.2933 2.32118 19.7776 1.80546C19.2618 1.28973 18.5624 1 17.833 1H4.08301C3.35366 1 2.65419 1.28973 2.13846 1.80546Z" fill="#9F9BAB"/>
<path d="M2.33301 11.781C2.48101 13.448 3.84601 14.631 5.92401 14.784V16H6.96701V14.784C9.23701 14.605 10.645 13.346 10.645 11.484C10.645 9.894 9.69801 8.974 7.68901 8.456L6.96701 8.269V4.467C8.08901 4.577 8.84601 5.181 9.03701 6.083H10.507C10.341 4.483 8.96701 3.335 6.96701 3.208V2H5.92401V3.233C3.98501 3.463 2.65401 4.705 2.65401 6.389C2.65401 7.843 3.62001 8.872 5.31501 9.306L5.92501 9.468V13.499C4.77601 13.329 3.98501 12.699 3.79401 11.781H2.33301ZM5.72401 7.945C4.68101 7.682 4.12401 7.12 4.12401 6.329C4.12401 5.385 4.82801 4.688 5.92401 4.501V7.996L5.72401 7.946V7.945ZM7.31501 9.817C8.60201 10.14 9.16701 10.676 9.16701 11.586C9.16701 12.683 8.34101 13.414 6.96701 13.525V9.73L7.31501 9.816V9.817Z" fill="#0E052E"/>
</svg>
