<svg width="24" height="24" viewBox="0 0 24 24" fill="none" xmlns="http://www.w3.org/2000/svg">
<path d="M12.3576 23.4128L12.588 23.8565L12.3574 23.4129C12.2476 23.47 12.1249 23.5 12 23.5C11.8751 23.5 11.7524 23.47 11.6426 23.4129L11.6424 23.4128L2.41075 18.6209C2.41052 18.6207 2.41029 18.6206 2.41006 18.6205C2.28464 18.5546 2.1808 18.4569 2.10893 18.3386C2.03696 18.2201 1.99952 18.0852 2.00001 17.9482V17.9465L2.00001 6.05353L2.00001 6.05217C1.99964 5.91539 2.03712 5.78062 2.10906 5.66232C2.18092 5.54417 2.28467 5.44656 2.40995 5.3808C2.41019 5.38068 2.41043 5.38055 2.41066 5.38043L11.6424 0.58722L11.6426 0.5871C11.7524 0.530035 11.8751 0.5 12 0.5C12.1249 0.5 12.2476 0.530035 12.3574 0.587101L12.3576 0.587245L21.5893 5.37919C21.5896 5.37931 21.5898 5.37944 21.59 5.37956C21.7154 5.44538 21.8193 5.54311 21.8911 5.6614C21.9631 5.77985 22.0005 5.91477 22 6.05167V6.05353L22 17.9465L22 17.9477C22.0003 18.0845 21.9628 18.2193 21.8909 18.3376C21.819 18.4558 21.7153 18.5534 21.59 18.6192C21.5898 18.6193 21.5895 18.6195 21.5892 18.6196L12.3576 23.4128Z" fill="url(#paint0_linear_2107_38541)" stroke="#F8F8F8"/>
<path d="M21.8213 19.0625L12.588 23.8565C12.4068 23.9508 12.2049 24 12 24V0C12.2049 0 12.4068 0.0492459 12.588 0.143469L21.8213 4.93623C22.0269 5.04392 22.1989 5.20491 22.3185 5.40181C22.4381 5.59871 22.5008 5.82405 22.5 6.05353V17.9465C22.5006 18.1757 22.4377 18.4008 22.3181 18.5974C22.1985 18.7941 22.0267 18.9549 21.8213 19.0625Z" fill="black" fill-opacity="0.12"/>
<path d="M18.997 10.9334C18.9906 10.8612 18.9582 10.7942 18.9061 10.7455C18.854 10.6968 18.7861 10.67 18.7158 10.6704H12.8179C12.4292 9.13654 11.0765 8 9.46693 8C7.55505 8 6 9.6014 6 11.5703C6 13.5396 7.55505 15.1405 9.46693 15.1405C11.1771 15.1405 12.5978 13.8584 12.8798 12.1796H14.1932V14.1057H14.1953C14.2004 14.1791 14.2323 14.2478 14.2846 14.298C14.3368 14.3482 14.4056 14.3761 14.4771 14.3762C14.481 14.3762 14.4844 14.3753 14.4883 14.3751V14.3768H15.3998V14.3764C15.4713 14.3763 15.5401 14.3484 15.5924 14.2982C15.6447 14.248 15.6766 14.1793 15.6816 14.1058H15.684V12.1798H16.428V15.1577H16.4302C16.4354 15.2312 16.4673 15.2999 16.5196 15.3501C16.5719 15.4003 16.6407 15.4283 16.7122 15.4286L16.7153 15.4283H17.6286L17.6317 15.4286C17.7032 15.4283 17.772 15.4003 17.8242 15.3501C17.8765 15.2998 17.9085 15.2312 17.9137 15.1577H17.9159V12.1796H18.7161V12.1793C18.7914 12.1792 18.8635 12.1483 18.9168 12.0935C18.97 12.0386 18.9999 11.9643 19 11.8868H18.9999V10.9332H18.997V10.9334ZM9.46693 13.6427C8.37046 13.6427 7.4784 12.7234 7.4784 11.5944C7.4784 10.4653 8.37046 9.54616 9.46693 9.54616C10.5632 9.54616 11.4549 10.4653 11.4549 11.5944C11.455 12.7236 10.5632 13.6427 9.46693 13.6427V13.6427Z" fill="#F8F8F8"/>
<defs>
<linearGradient id="paint0_linear_2107_38541" x1="1.49271" y1="24.0001" x2="22.5073" y2="24.0001" gradientUnits="userSpaceOnUse">
<stop stop-color="#4C5FFD"/>
<stop offset="1" stop-color="#1841D3"/>
</linearGradient>
</defs>
</svg>
