<svg width="24" height="24" viewBox="0 0 24 24" fill="none" xmlns="http://www.w3.org/2000/svg">
<path d="M1 3.75C1 3.02065 1.28973 2.32118 1.80546 1.80546C2.32118 1.28973 3.02065 1 3.75 1H17.5C18.2293 1 18.9288 1.28973 19.4445 1.80546C19.9603 2.32118 20.25 3.02065 20.25 3.75V10.075C19.186 9.5308 18.0076 9.24799 16.8125 9.25C15.1941 9.25 13.694 9.75875 12.4634 10.625H9.9375C9.75516 10.625 9.58029 10.6974 9.45136 10.8264C9.32243 10.9553 9.25 11.1302 9.25 11.3125C9.25 11.4948 9.32243 11.6697 9.45136 11.7986C9.58029 11.9276 9.75516 12 9.9375 12H10.9784C9.8586 13.3535 9.24721 15.0559 9.25 16.8125C9.25 18.05 9.547 19.2188 10.075 20.25H3.75C3.02065 20.25 2.32118 19.9603 1.80546 19.4445C1.28973 18.9288 1 18.2293 1 17.5V3.75ZM6.15625 7.875C6.42975 7.875 6.69206 7.76635 6.88545 7.57295C7.07885 7.37956 7.1875 7.11725 7.1875 6.84375C7.1875 6.57025 7.07885 6.30794 6.88545 6.11455C6.69206 5.92115 6.42975 5.8125 6.15625 5.8125C5.88275 5.8125 5.62044 5.92115 5.42705 6.11455C5.23365 6.30794 5.125 6.57025 5.125 6.84375C5.125 7.11725 5.23365 7.37956 5.42705 7.57295C5.62044 7.76635 5.88275 7.875 6.15625 7.875ZM5.125 10.9688C5.125 11.2423 5.23365 11.5046 5.42705 11.698C5.62044 11.8913 5.88275 12 6.15625 12C6.42975 12 6.69206 11.8913 6.88545 11.698C7.07885 11.5046 7.1875 11.2423 7.1875 10.9688C7.1875 10.6952 7.07885 10.4329 6.88545 10.2395C6.69206 10.0462 6.42975 9.9375 6.15625 9.9375C5.88275 9.9375 5.62044 10.0462 5.42705 10.2395C5.23365 10.4329 5.125 10.6952 5.125 10.9688ZM6.15625 16.125C6.42975 16.125 6.69206 16.0163 6.88545 15.823C7.07885 15.6296 7.1875 15.3673 7.1875 15.0938C7.1875 14.8202 7.07885 14.5579 6.88545 14.3645C6.69206 14.1712 6.42975 14.0625 6.15625 14.0625C5.88275 14.0625 5.62044 14.1712 5.42705 14.3645C5.23365 14.5579 5.125 14.8202 5.125 15.0938C5.125 15.3673 5.23365 15.6296 5.42705 15.823C5.62044 16.0163 5.88275 16.125 6.15625 16.125ZM15.4375 6.5H9.9375C9.75516 6.5 9.58029 6.57243 9.45136 6.70136C9.32243 6.8303 9.25 7.00516 9.25 7.1875C9.25 7.36984 9.32243 7.5447 9.45136 7.67364C9.58029 7.80257 9.75516 7.875 9.9375 7.875H15.4375C15.6198 7.875 15.7947 7.80257 15.9236 7.67364C16.0526 7.5447 16.125 7.36984 16.125 7.1875C16.125 7.00516 16.0526 6.8303 15.9236 6.70136C15.7947 6.57243 15.6198 6.5 15.4375 6.5ZM16.8125 23C18.4535 23 20.0273 22.3481 21.1877 21.1877C22.3481 20.0273 23 18.4535 23 16.8125C23 15.1715 22.3481 13.5977 21.1877 12.4373C20.0273 11.2769 18.4535 10.625 16.8125 10.625C15.1715 10.625 13.5977 11.2769 12.4373 12.4373C11.2769 13.5977 10.625 15.1715 10.625 16.8125C10.625 18.4535 11.2769 20.0273 12.4373 21.1877C13.5977 22.3481 15.1715 23 16.8125 23ZM16.125 14.0625C16.125 13.8802 16.1974 13.7053 16.3264 13.5764C16.4553 13.4474 16.6302 13.375 16.8125 13.375C16.9948 13.375 17.1697 13.4474 17.2986 13.5764C17.4276 13.7053 17.5 13.8802 17.5 14.0625V16.125H18.875C19.0573 16.125 19.2322 16.1974 19.3611 16.3264C19.4901 16.4553 19.5625 16.6302 19.5625 16.8125C19.5625 16.9948 19.4901 17.1697 19.3611 17.2986C19.2322 17.4276 19.0573 17.5 18.875 17.5H16.8125C16.6302 17.5 16.4553 17.4276 16.3264 17.2986C16.1974 17.1697 16.125 16.9948 16.125 16.8125V14.0625Z" fill="#9F9BAB"/>
</svg>
