<svg width="25" height="24" viewBox="0 0 25 24" fill="none" xmlns="http://www.w3.org/2000/svg">
<path d="M6.72002 3.73203L16.6365 7.98153L12.666 9.68253L2.80652 5.45703C3.02852 5.23053 3.30002 5.04753 3.60902 4.92903L6.72002 3.73203ZM8.72702 2.96103L11.052 2.06703C12.0914 1.66744 13.2421 1.66744 14.2815 2.06703L21.7245 4.92903C22.032 5.04903 22.3035 5.22903 22.5255 5.45703L18.5415 7.16403L8.72702 2.96103ZM23.157 6.81903L13.416 10.9935V22.1685C13.7117 22.1187 14.0017 22.0393 14.2815 21.9315L21.7245 19.068C22.1488 18.9046 22.5137 18.6165 22.771 18.2416C23.0284 17.8668 23.1661 17.4227 23.166 16.968V7.02903C23.1663 6.95889 23.1628 6.88879 23.1555 6.81903H23.157ZM11.916 22.1685V10.9935L2.17652 6.81903C2.16976 6.88883 2.16625 6.9589 2.16602 7.02903V16.968C2.16608 17.4229 2.304 17.8671 2.56161 18.242C2.81922 18.6169 3.18441 18.9049 3.60902 19.068L11.0505 21.9315C11.3325 22.0395 11.622 22.119 11.916 22.1685Z" fill="#9F9BAB"/>
</svg>
