<svg width="36" height="36" viewBox="0 0 36 36" fill="none" xmlns="http://www.w3.org/2000/svg">
<path fill-rule="evenodd" clip-rule="evenodd" d="M14.6961 5.56433C12.8531 5.93854 12.1785 6.77334 12.2437 7.97564C12.3355 9.66394 14.1941 12.8846 15.0816 14.3202C16.6324 16.8299 18.4676 19.0936 20.5086 21.1776C22.1629 22.8116 23.1961 23.1651 24.9637 20.753C26.4707 18.7667 27.8636 16.7889 29.0586 14.326C29.5826 13.2432 30.0666 12.0624 30.4996 10.7374C30.9646 9.19053 30.7956 7.82133 29.2836 6.81354C30.7486 7.52334 31.3796 8.83583 31.4736 10.2811C31.5636 11.6776 31.1446 13.2003 30.8246 14.3202C30.0306 17.1104 29.0136 19.9237 27.7256 22.4522C26.7527 24.3612 25.5125 26.66 24.2762 28.3604C21.5398 32.126 18.9121 30.9092 15.834 28.3612C13.8824 26.746 12.0059 24.6991 10.3965 22.4659C8.77031 20.2108 6.97342 16.8741 5.91412 14.3096C4.46172 10.7967 5.59061 8.99793 7.38481 7.85733C9.35551 6.60464 12.3074 5.89444 14.6961 5.56433Z" fill="url(#paint0_linear_3218_38529)"/>
<path fill-rule="evenodd" clip-rule="evenodd" d="M14.6322 13.5761C17.483 13.1504 24.8912 12.6894 27.4894 14.0363C28.3594 14.4863 28.3834 15.0957 28.2974 15.7871C28.5584 15.3183 28.8124 14.832 29.0584 14.3261C29.5824 13.2433 30.0664 12.0625 30.4994 10.7375C30.9644 9.19061 30.7954 7.82141 29.2834 6.81361L29.2774 6.80971C28.7134 6.51481 28.0654 6.30071 27.4844 6.13201C25.7689 5.63591 23.8697 5.43281 21.9603 5.29491C21.1717 5.23751 20.3463 5.24331 19.5103 5.24611C18.0014 5.25111 16.3443 5.34291 14.6947 5.56441C12.8529 5.93861 12.1783 6.77341 12.2435 7.97571C12.3221 9.41401 13.6834 11.9648 14.6322 13.5761Z" fill="url(#paint1_linear_3218_38529)"/>
<defs>
<linearGradient id="paint0_linear_3218_38529" x1="28.2886" y1="21.6143" x2="7.36642" y2="6.96444" gradientUnits="userSpaceOnUse">
<stop stop-color="#706E79"/>
<stop offset="0.4" stop-color="#9F9BAB"/>
<stop offset="1" stop-color="#807B8C"/>
</linearGradient>
<linearGradient id="paint1_linear_3218_38529" x1="15.1656" y1="5.43801" x2="27.5464" y2="14.1072" gradientUnits="userSpaceOnUse">
<stop stop-color="#636169"/>
<stop offset="0.3" stop-color="#817D8E"/>
<stop offset="1" stop-color="#9F9BAB"/>
</linearGradient>
</defs>
</svg>
